%YAML 1.1
%TAG !u! tag:unity3d.com,2011:
--- !u!1001 &1737588457965441808
PrefabInstance:
  m_ObjectHideFlags: 0
  serializedVersion: 2
  m_Modification:
    m_TransformParent: {fileID: 0}
    m_Modifications:
    - target: {fileID: 2630179440962000092, guid: f606a74d28bccb049bcc2df962b42a1e,
        type: 3}
      propertyPath: m_LocalPosition.x
      value: 0
      objectReference: {fileID: 0}
    - target: {fileID: 2630179440962000092, guid: f606a74d28bccb049bcc2df962b42a1e,
        type: 3}
      propertyPath: m_LocalPosition.y
      value: 0
      objectReference: {fileID: 0}
    - target: {fileID: 2630179440962000092, guid: f606a74d28bccb049bcc2df962b42a1e,
        type: 3}
      propertyPath: m_LocalPosition.z
      value: 0
      objectReference: {fileID: 0}
    - target: {fileID: 2630179440962000092, guid: f606a74d28bccb049bcc2df962b42a1e,
        type: 3}
      propertyPath: m_LocalRotation.x
      value: 0
      objectReference: {fileID: 0}
    - target: {fileID: 2630179440962000092, guid: f606a74d28bccb049bcc2df962b42a1e,
        type: 3}
      propertyPath: m_LocalRotation.y
      value: 0
      objectReference: {fileID: 0}
    - target: {fileID: 2630179440962000092, guid: f606a74d28bccb049bcc2df962b42a1e,
        type: 3}
      propertyPath: m_LocalRotation.z
      value: 0
      objectReference: {fileID: 0}
    - target: {fileID: 2630179440962000092, guid: f606a74d28bccb049bcc2df962b42a1e,
        type: 3}
      propertyPath: m_LocalRotation.w
      value: 1
      objectReference: {fileID: 0}
    - target: {fileID: 2630179440962000092, guid: f606a74d28bccb049bcc2df962b42a1e,
        type: 3}
      propertyPath: m_RootOrder
      value: 0
      objectReference: {fileID: 0}
    - target: {fileID: 2630179440962000092, guid: f606a74d28bccb049bcc2df962b42a1e,
        type: 3}
      propertyPath: m_LocalEulerAnglesHint.x
      value: 0
      objectReference: {fileID: 0}
    - target: {fileID: 2630179440962000092, guid: f606a74d28bccb049bcc2df962b42a1e,
        type: 3}
      propertyPath: m_LocalEulerAnglesHint.y
      value: 0
      objectReference: {fileID: 0}
    - target: {fileID: 2630179440962000092, guid: f606a74d28bccb049bcc2df962b42a1e,
        type: 3}
      propertyPath: m_LocalEulerAnglesHint.z
      value: 0
      objectReference: {fileID: 0}
    - target: {fileID: 2676349967811234773, guid: f606a74d28bccb049bcc2df962b42a1e,
        type: 3}
      propertyPath: m_LocalScale.x
      value: 3
      objectReference: {fileID: 0}
    - target: {fileID: 2676349967811234773, guid: f606a74d28bccb049bcc2df962b42a1e,
        type: 3}
      propertyPath: m_LocalScale.y
      value: 3
      objectReference: {fileID: 0}
    - target: {fileID: 3223636364554339937, guid: f606a74d28bccb049bcc2df962b42a1e,
        type: 3}
      propertyPath: m_Name
      value: Boss Radioactivo Variant
      objectReference: {fileID: 0}
    - target: {fileID: 8207277696939426840, guid: f606a74d28bccb049bcc2df962b42a1e,
        type: 3}
      propertyPath: m_Sprite
      value: 
      objectReference: {fileID: 21300000, guid: 3c1d467267dc5d443b9420bbb6ae374e,
        type: 3}
    m_RemovedComponents: []
  m_SourcePrefab: {fileID: 100100000, guid: f606a74d28bccb049bcc2df962b42a1e, type: 3}
