%YAML 1.1
%TAG !u! tag:unity3d.com,2011:
--- !u!1001 &6059485996509040406
PrefabInstance:
  m_ObjectHideFlags: 0
  serializedVersion: 2
  m_Modification:
    m_TransformParent: {fileID: 0}
    m_Modifications:
    - target: {fileID: 3384239115766989247, guid: 732f837bc46c5eb4fb48c4b778af0273,
        type: 3}
      propertyPath: m_Name
      value: Legos Variant
      objectReference: {fileID: 0}
    - target: {fileID: 4774508975584628123, guid: 732f837bc46c5eb4fb48c4b778af0273,
        type: 3}
      propertyPath: m_Sprite
      value: 
      objectReference: {fileID: 21300000, guid: 309341262162179429c91cf0a87e2663,
        type: 3}
    - target: {fileID: 5023383261138998197, guid: 732f837bc46c5eb4fb48c4b778af0273,
        type: 3}
      propertyPath: m_Name
      value: legos
      objectReference: {fileID: 0}
    - target: {fileID: 5788800646069170280, guid: 732f837bc46c5eb4fb48c4b778af0273,
        type: 3}
      propertyPath: meteorToInstanciate
      value: 
      objectReference: {fileID: 678554172325905279, guid: 63bc690a039152944b84e2f504eaefeb,
        type: 3}
    - target: {fileID: 8795206631795122971, guid: 732f837bc46c5eb4fb48c4b778af0273,
        type: 3}
      propertyPath: m_LocalPosition.x
      value: 0
      objectReference: {fileID: 0}
    - target: {fileID: 8795206631795122971, guid: 732f837bc46c5eb4fb48c4b778af0273,
        type: 3}
      propertyPath: m_LocalPosition.y
      value: 0
      objectReference: {fileID: 0}
    - target: {fileID: 8795206631795122971, guid: 732f837bc46c5eb4fb48c4b778af0273,
        type: 3}
      propertyPath: m_LocalPosition.z
      value: 0
      objectReference: {fileID: 0}
    - target: {fileID: 8795206631795122971, guid: 732f837bc46c5eb4fb48c4b778af0273,
        type: 3}
      propertyPath: m_LocalRotation.x
      value: 0
      objectReference: {fileID: 0}
    - target: {fileID: 8795206631795122971, guid: 732f837bc46c5eb4fb48c4b778af0273,
        type: 3}
      propertyPath: m_LocalRotation.y
      value: 0
      objectReference: {fileID: 0}
    - target: {fileID: 8795206631795122971, guid: 732f837bc46c5eb4fb48c4b778af0273,
        type: 3}
      propertyPath: m_LocalRotation.z
      value: 0
      objectReference: {fileID: 0}
    - target: {fileID: 8795206631795122971, guid: 732f837bc46c5eb4fb48c4b778af0273,
        type: 3}
      propertyPath: m_LocalRotation.w
      value: 1
      objectReference: {fileID: 0}
    - target: {fileID: 8795206631795122971, guid: 732f837bc46c5eb4fb48c4b778af0273,
        type: 3}
      propertyPath: m_RootOrder
      value: 0
      objectReference: {fileID: 0}
    - target: {fileID: 8795206631795122971, guid: 732f837bc46c5eb4fb48c4b778af0273,
        type: 3}
      propertyPath: m_LocalEulerAnglesHint.x
      value: 0
      objectReference: {fileID: 0}
    - target: {fileID: 8795206631795122971, guid: 732f837bc46c5eb4fb48c4b778af0273,
        type: 3}
      propertyPath: m_LocalEulerAnglesHint.y
      value: 0
      objectReference: {fileID: 0}
    - target: {fileID: 8795206631795122971, guid: 732f837bc46c5eb4fb48c4b778af0273,
        type: 3}
      propertyPath: m_LocalEulerAnglesHint.z
      value: 0
      objectReference: {fileID: 0}
    m_RemovedComponents: []
  m_SourcePrefab: {fileID: 100100000, guid: 732f837bc46c5eb4fb48c4b778af0273, type: 3}
